SYMBOLSET
SYMBOL
  NAME "Continue"
  TYPE ellipse
  FILLED true
  POINTS 1 1 END
END

SYMBOL
  NAME 'Tiret 1'
  TYPE ELLIPSE
  POINTS 1 1 END
  FILLED true
  STYLE 1 1 END
END

SYMBOL
  NAME 'Tiret 2'
  TYPE ELLIPSE
  POINTS 1 1 END
  FILLED true
  STYLE 2 2 END
END

SYMBOL
  NAME 'Tiret 3'
  TYPE ELLIPSE
  POINTS 1 1 END
  FILLED true
  STYLE 3 3 END
END

SYMBOL
  NAME 'Tiret 5'
  TYPE ELLIPSE
  POINTS 1 1 END
  FILLED true
  STYLE 5 5 END
END

SYMBOL
  NAME 'Tiret 10'
  TYPE ELLIPSE
  POINTS 1 1 END
  FILLED true
  STYLE 10 10 END
END

SYMBOL
  NAME 'Discontinue 5-2'
  TYPE ELLIPSE
  POINTS 1 1 END
  FILLED true
  STYLE 5 2 END
END

SYMBOL
  NAME 'Discontinue 5-2-1-2'
  TYPE ELLIPSE
  POINTS 1 1 END
  FILLED true
  STYLE 5 2 1 2 END
END
END
